Data Visulaization on Gapminder Dataframe
…
ScatterPlot | gdpPercap vs lifeExp on log scale with continents differentiated with colors & pop with size

ScatterPlots with facetwrap | gdpPercap vs LifeExp of each continent

Line graph | Total population of continents over years

Line graph | Population over the years and continents

Create dataframe with filter year=2007

gapminder_year2007 <- gapminder::gapminder %>% filter(year == 2007)
gapminder_year2007

## # A tibble: 142 x 6
##    country     continent  year lifeExp       pop gdpPercap
##    <fct>       <fct>     <int>   <dbl>     <int>     <dbl>
##  1 Afghanistan Asia       2007    43.8  31889923      975.
##  2 Albania     Europe     2007    76.4   3600523     5937.
##  3 Algeria     Africa     2007    72.3  33333216     6223.
##  4 Angola      Africa     2007    42.7  12420476     4797.
##  5 Argentina   Americas   2007    75.3  40301927    12779.
##  6 Australia   Oceania    2007    81.2  20434176    34435.
##  7 Austria     Europe     2007    79.8   8199783    36126.
##  8 Bahrain     Asia       2007    75.6    708573    29796.
##  9 Bangladesh  Asia       2007    64.1 150448339     1391.
## 10 Belgium     Europe     2007    79.4  10392226    33693.
## # ... with 132 more rows
…
Data with groupby(year,continent)

by_year_continent <- gapminder::gapminder %>% group_by(year, continent) %>% summarize(totalPop = sum(as.numeric(pop)),
meanLifeExp = mean(lifeExp))
by_year_continent

## # A tibble: 60 x 4
## # Groups:   year [?]
##     year continent   totalPop meanLifeExp
##    <int> <fct>          <dbl>       <dbl>
##  1  1952 Africa     237640501        39.1
##  2  1952 Americas   345152446        53.3
##  3  1952 Asia      1395357351        46.3
##  4  1952 Europe     418120846        64.4
##  5  1952 Oceania     10686006        69.3
##  6  1957 Africa     264837738        41.3
##  7  1957 Americas   386953916        56.0
##  8  1957 Asia      1562780599        49.3
##  9  1957 Europe     437890351        66.7
## 10  1957 Oceania     11941976        70.3
## # ... with 50 more rows
…
